INSERT INTO tasks(state, due, description, user_id) VALUES
	('done', '2018-02-22', 'write a line of code', 3),
	('done', '2018-02-22', 'refactor a line of code', 3),
	('done', '2018-02-22', 'delete a line of code', 3),
	('done', '2018-02-22', 'write a line of code', 3),
	('done', '2018-02-22', 'refactor a line of code', 3),
	('done', '2018-02-22', 'delete a line of code', 3),
	('done', '2018-02-22', 'write a line of code', 3),
	('done', '2018-02-22', 'refactor a line of code', 3),
	('done', '2018-02-22', 'delete a line of code', 3),
	('done', '2018-02-22', 'write a line of code', 3),
	('done', '2018-02-22', 'refactor a line of code', 3),
	('done', '2018-02-22', 'delete a line of code', 3),
	('done', '2018-02-22', 'write a line of code', 3),
	('done', '2018-02-22', 'refactor a line of code', 3),
	('done', '2018-02-22', 'delete a line of code', 3),
	('done', '2018-02-22', 'write a line of code', 3),
	('done', '2018-02-22', 'refactor a line of code', 3),
	('done', '2018-02-22', 'delete a line of code', 3),
	('done', '2018-02-22', 'write a line of code', 3),
	('done', '2018-02-22', 'refactor a line of code', 3),
	('done', '2018-02-22', 'delete a line of code', 3),
	('done', '2018-02-22', 'write a line of code', 3),
	('done', '2018-02-22', 'refactor a line of code', 3),
	('done', '2018-02-22', 'delete a line of code', 3),
	('done', '2018-02-22', 'write a line of code', 3),
	('done', '2018-02-22', 'refactor a line of code', 3),
	('done', '2018-02-22', 'delete a line of code', 3),
	('done', '2018-02-22', 'write a line of code', 3),
	('done', '2018-02-22', 'refactor a line of code', 3),
	('done', '2018-02-22', 'delete a line of code', 3),
	('done', '2018-02-22', 'write a line of code', 3),
	('done', '2018-02-22', 'refactor a line of code', 3),
	('done', '2018-02-22', 'delete a line of code', 3),
	('done', '2018-02-22', 'write a line of code', 3),
	('done', '2018-02-22', 'refactor a line of code', 3),
	('done', '2018-02-22', 'delete a line of code', 3),
	('done', '2018-02-22', 'write a line of code', 3),
	('done', '2018-02-22', 'refactor a line of code', 3),
	('done', '2018-02-22', 'delete a line of code', 3),
	('done', '2018-02-22', 'write a line of code', 3),
	('done', '2018-02-22', 'refactor a line of code', 3),
	('done', '2018-02-22', 'delete a line of code', 3),
	('done', '2018-02-22', 'write a line of code', 3),
	('done', '2018-02-22', 'refactor a line of code', 3),
	('done', '2018-02-22', 'delete a line of code', 3),
	('done', '2018-02-22', 'write a line of code', 3),
	('done', '2018-02-22', 'refactor a line of code', 3),
	('done', '2018-02-22', 'delete a line of code', 3),
	('done', '2018-02-22', 'write a line of code', 3),
	('done', '2018-02-22', 'refactor a line of code', 3),
	('done', '2018-02-22', 'delete a line of code', 3),
	('done', '2018-02-22', 'write a line of code', 3),
	('done', '2018-02-22', 'refactor a line of code', 3),
	('done', '2018-02-22', 'delete a line of code', 3),
	('done', '2018-02-22', 'write a line of code', 3),
	('done', '2018-02-22', 'refactor a line of code', 3),
	('done', '2018-02-22', 'delete a line of code', 3),
	('done', '2018-02-22', 'write a line of code', 3),
	('done', '2018-02-22', 'refactor a line of code', 3),
	('done', '2018-02-22', 'delete a line of code', 3),
	('done', '2018-02-22', 'write a line of code', 3),
	('done', '2018-02-22', 'refactor a line of code', 3),
	('done', '2018-02-22', 'delete a line of code', 3),
	('done', '2018-02-22', 'write a line of code', 3),
	('done', '2018-02-22', 'refactor a line of code', 3),
	('done', '2018-02-22', 'delete a line of code', 3),
	('done', '2018-02-22', 'write a line of code', 3),
	('done', '2018-02-22', 'refactor a line of code', 3),
	('done', '2018-02-22', 'delete a line of code', 3),
	('done', '2018-02-22', 'write a line of code', 3),
	('done', '2018-02-22', 'refactor a line of code', 3),
	('done', '2018-02-22', 'delete a line of code', 3),
	('done', '2018-02-22', 'write a line of code', 3),
	('done', '2018-02-22', 'refactor a line of code', 3),
	('done', '2018-02-22', 'delete a line of code', 3),
	('done', '2018-02-22', 'write a line of code', 3),
	('done', '2018-02-22', 'refactor a line of code', 3),
	('done', '2018-02-22', 'delete a line of code', 3),
	('done', '2018-02-22', 'write a line of code', 3),
	('done', '2018-02-22', 'refactor a line of code', 3),
	('done', '2018-02-22', 'delete a line of code', 3),
	('done', '2018-02-22', 'write a line of code', 3),
	('done', '2018-02-22', 'refactor a line of code', 3),
	('done', '2018-02-22', 'delete a line of code', 3),
	('done', '2018-02-22', 'write a line of code', 3),
	('done', '2018-02-22', 'refactor a line of code', 3),
	('done', '2018-02-22', 'delete a line of code', 3),
	('done', '2018-02-22', 'write a line of code', 3),
	('done', '2018-02-22', 'refactor a line of code', 3),
	('done', '2018-02-22', 'delete a line of code', 3),
	('done', '2018-02-22', 'write a line of code', 3),
	('done', '2018-02-22', 'refactor a line of code', 3),
	('done', '2018-02-22', 'delete a line of code', 3),
	('done', '2018-02-22', 'write a line of code', 3),
	('done', '2018-02-22', 'refactor a line of code', 3),
	('done', '2018-02-22', 'delete a line of code', 3),
	('done', '2018-02-22', 'write a line of code', 3),
	('done', '2018-02-22', 'refactor a line of code', 3),
	('done', '2018-02-22', 'delete a line of code', 3),
	('done', '2018-02-22', 'write a line of code', 3),
	('done', '2018-02-22', 'refactor a line of code', 3),
	('done', '2018-02-22', 'delete a line of code', 3),
	('done', '2018-02-22', 'write a line of code', 3),
	('done', '2018-02-22', 'refactor a line of code', 3),
	('done', '2018-02-22', 'delete a line of code', 3),
	('done', '2018-02-22', 'write a line of code', 3),
	('done', '2018-02-22', 'refactor a line of code', 3),
	('done', '2018-02-22', 'delete a line of code', 3),
	('done', '2018-02-22', 'write a line of code', 3),
	('done', '2018-02-22', 'refactor a line of code', 3),
	('done', '2018-02-22', 'delete a line of code', 3),
	('done', '2018-02-22', 'write a line of code', 3),
	('done', '2018-02-22', 'refactor a line of code', 3),
	('done', '2018-02-22', 'delete a line of code', 3),
	('done', '2018-02-22', 'write a line of code', 3),
	('done', '2018-02-22', 'refactor a line of code', 3),
	('done', '2018-02-22', 'delete a line of code', 3),
	('done', '2018-02-22', 'write a line of code', 3),
	('done', '2018-02-22', 'refactor a line of code', 3),
	('done', '2018-02-22', 'delete a line of code', 3),
	('done', '2018-02-22', 'write a line of code', 3),
	('done', '2018-02-22', 'refactor a line of code', 3),
	('done', '2018-02-22', 'delete a line of code', 3),
	('done', '2018-02-22', 'write a line of code', 3),
	('done', '2018-02-22', 'refactor a line of code', 3),
	('done', '2018-02-22', 'delete a line of code', 3),
	('done', '2018-02-22', 'write a line of code', 3),
	('done', '2018-02-22', 'refactor a line of code', 3),
	('done', '2018-02-22', 'delete a line of code', 3),
	('done', '2018-02-22', 'write a line of code', 3),
	('done', '2018-02-22', 'refactor a line of code', 3),
	('done', '2018-02-22', 'delete a line of code', 3),
	('done', '2018-02-22', 'write a line of code', 3),
	('done', '2018-02-22', 'refactor a line of code', 3),
	('done', '2018-02-22', 'delete a line of code', 3),
	('done', '2018-02-22', 'write a line of code', 3),
	('done', '2018-02-22', 'refactor a line of code', 3),
	('done', '2018-02-22', 'delete a line of code', 3),
	('done', '2018-02-22', 'write a line of code', 3),
	('done', '2018-02-22', 'refactor a line of code', 3),
	('done', '2018-02-22', 'delete a line of code', 3),
	('done', '2018-02-22', 'write a line of code', 3),
	('done', '2018-02-22', 'refactor a line of code', 3),
	('done', '2018-02-22', 'delete a line of code', 3),
	('done', '2018-02-22', 'write a line of code', 3),
	('done', '2018-02-22', 'refactor a line of code', 3),
	('done', '2018-02-22', 'delete a line of code', 3),
	('done', '2018-02-22', 'write a line of code', 3),
	('done', '2018-02-22', 'refactor a line of code', 3),
	('done', '2018-02-22', 'delete a line of code', 3),
	('done', '2018-02-22', 'write a line of code', 3),
	('done', '2018-02-22', 'refactor a line of code', 3),
	('done', '2018-02-22', 'delete a line of code', 3),
	('done', '2018-02-22', 'write a line of code', 3),
	('done', '2018-02-22', 'refactor a line of code', 3),
	('done', '2018-02-22', 'delete a line of code', 3),
	('done', '2018-02-22', 'write a line of code', 3),
	('done', '2018-02-22', 'refactor a line of code', 3),
	('done', '2018-02-22', 'delete a line of code', 3),
	('done', '2018-02-22', 'write a line of code', 3),
	('done', '2018-02-22', 'refactor a line of code', 3),
	('done', '2018-02-22', 'delete a line of code', 3),
	('done', '2018-02-22', 'write a line of code', 3),
	('done', '2018-02-22', 'refactor a line of code', 3),
	('done', '2018-02-22', 'delete a line of code', 3),
	('done', '2018-02-22', 'write a line of code', 3),
	('done', '2018-02-22', 'refactor a line of code', 3),
	('done', '2018-02-22', 'delete a line of code', 3),
	('done', '2018-02-22', 'write a line of code', 3),
	('done', '2018-02-22', 'refactor a line of code', 3),
	('done', '2018-02-22', 'delete a line of code', 3),
	('done', '2018-02-22', 'write a line of code', 3),
	('done', '2018-02-22', 'refactor a line of code', 3),
	('done', '2018-02-22', 'delete a line of code', 3),
	('done', '2018-02-22', 'write a line of code', 3),
	('done', '2018-02-22', 'refactor a line of code', 3),
	('done', '2018-02-22', 'delete a line of code', 3),
	('done', '2018-02-22', 'write a line of code', 3),
	('done', '2018-02-22', 'refactor a line of code', 3),
	('done', '2018-02-22', 'delete a line of code', 3),
	('done', '2018-02-22', 'write a line of code', 3),
	('done', '2018-02-22', 'refactor a line of code', 3),
	('done', '2018-02-22', 'delete a line of code', 3),
	('done', '2018-02-22', 'write a line of code', 3),
	('done', '2018-02-22', 'refactor a line of code', 3),
	('done', '2018-02-22', 'delete a line of code', 3),
	('done', '2018-02-22', 'write a line of code', 3),
	('done', '2018-02-22', 'refactor a line of code', 3),
	('done', '2018-02-22', 'delete a line of code', 3),
	('done', '2018-02-22', 'write a line of code', 3),
	('done', '2018-02-22', 'refactor a line of code', 3),
	('done', '2018-02-22', 'delete a line of code', 3),
	('done', '2018-02-22', 'write a line of code', 3),
	('done', '2018-02-22', 'refactor a line of code', 3),
	('done', '2018-02-22', 'delete a line of code', 3),
	('done', '2018-02-22', 'write a line of code', 3),
	('done', '2018-02-22', 'refactor a line of code', 3),
	('done', '2018-02-22', 'delete a line of code', 3),
	('done', '2018-02-22', 'write a line of code', 3),
	('done', '2018-02-22', 'refactor a line of code', 3),
	('done', '2018-02-22', 'delete a line of code', 3),
	('done', '2018-02-22', 'write a line of code', 3),
	('done', '2018-02-22', 'refactor a line of code', 3),
	('done', '2018-02-22', 'delete a line of code', 3),
	('done', '2018-02-22', 'write a line of code', 3),
	('done', '2018-02-22', 'refactor a line of code', 3),
	('done', '2018-02-22', 'delete a line of code', 3),
	('done', '2018-02-22', 'write a line of code', 3),
	('done', '2018-02-22', 'refactor a line of code', 3),
	('done', '2018-02-22', 'delete a line of code', 3),
	('done', '2018-02-22', 'write a line of code', 3),
	('done', '2018-02-22', 'refactor a line of code', 3),
	('done', '2018-02-22', 'delete a line of code', 3),
	('done', '2018-02-22', 'write a line of code', 3),
	('done', '2018-02-22', 'refactor a line of code', 3),
	('done', '2018-02-22', 'delete a line of code', 3),
	('done', '2018-02-22', 'write a line of code', 3),
	('done', '2018-02-22', 'refactor a line of code', 3),
	('done', '2018-02-22', 'delete a line of code', 3),
	('done', '2018-02-22', 'write a line of code', 3),
	('done', '2018-02-22', 'refactor a line of code', 3),
	('done', '2018-02-22', 'delete a line of code', 3),
	('done', '2018-02-22', 'write a line of code', 3),
	('done', '2018-02-22', 'refactor a line of code', 3),
	('done', '2018-02-22', 'delete a line of code', 3),
	('done', '2018-02-22', 'write a line of code', 3),
	('done', '2018-02-22', 'refactor a line of code', 3),
	('done', '2018-02-22', 'delete a line of code', 3),
	('done', '2018-02-22', 'write a line of code', 3),
	('done', '2018-02-22', 'refactor a line of code', 3),
	('done', '2018-02-22', 'delete a line of code', 3),
	('done', '2018-02-22', 'write a line of code', 3),
	('done', '2018-02-22', 'refactor a line of code', 3),
	('done', '2018-02-22', 'delete a line of code', 3),
	('done', '2018-02-22', 'write a line of code', 3),
	('done', '2018-02-22', 'refactor a line of code', 3),
	('done', '2018-02-22', 'delete a line of code', 3),
	('done', '2018-02-22', 'write a line of code', 3),
	('done', '2018-02-22', 'refactor a line of code', 3),
	('done', '2018-02-22', 'delete a line of code', 3),
	('done', '2018-02-22', 'write a line of code', 3),
	('done', '2018-02-22', 'refactor a line of code', 3),
	('done', '2018-02-22', 'delete a line of code', 3),
	('done', '2018-02-22', 'write a line of code', 3),
	('done', '2018-02-22', 'refactor a line of code', 3),
	('done', '2018-02-22', 'delete a line of code', 3),
	('done', '2018-02-22', 'write a line of code', 3),
	('done', '2018-02-22', 'refactor a line of code', 3),
	('done', '2018-02-22', 'delete a line of code', 3),
	('done', '2018-02-22', 'write a line of code', 3),
	('done', '2018-02-22', 'refactor a line of code', 3),
	('done', '2018-02-22', 'delete a line of code', 3),
	('done', '2018-02-22', 'write a line of code', 3),
	('done', '2018-02-22', 'refactor a line of code', 3),
	('done', '2018-02-22', 'delete a line of code', 3),
	('done', '2018-02-22', 'write a line of code', 3),
	('done', '2018-02-22', 'refactor a line of code', 3),
	('done', '2018-02-22', 'delete a line of code', 3),
	('done', '2018-02-22', 'write a line of code', 3),
	('done', '2018-02-22', 'refactor a line of code', 3),
	('done', '2018-02-22', 'delete a line of code', 3),
	('done', '2018-02-22', 'write a line of code', 3),
	('done', '2018-02-22', 'refactor a line of code', 3),
	('done', '2018-02-22', 'delete a line of code', 3),
	('done', '2018-02-22', 'write a line of code', 3),
	('done', '2018-02-22', 'refactor a line of code', 3),
	('done', '2018-02-22', 'delete a line of code', 3),
	('done', '2018-02-22', 'write a line of code', 3),
	('done', '2018-02-22', 'refactor a line of code', 3),
	('done', '2018-02-22', 'delete a line of code', 3),
	('done', '2018-02-22', 'write a line of code', 3),
	('done', '2018-02-22', 'refactor a line of code', 3),
	('done', '2018-02-22', 'delete a line of code', 3),
	('done', '2018-02-22', 'write a line of code', 3),
	('done', '2018-02-22', 'refactor a line of code', 3),
	('done', '2018-02-22', 'delete a line of code', 3),
	('done', '2018-02-22', 'write a line of code', 3),
	('done', '2018-02-22', 'refactor a line of code', 3),
	('done', '2018-02-22', 'delete a line of code', 3),
	('done', '2018-02-22', 'write a line of code', 3),
	('done', '2018-02-22', 'refactor a line of code', 3),
	('done', '2018-02-22', 'delete a line of code', 3),
	('done', '2018-02-22', 'write a line of code', 3),
	('done', '2018-02-22', 'refactor a line of code', 3),
	('done', '2018-02-22', 'delete a line of code', 3),
	('done', '2018-02-22', 'write a line of code', 3),
	('done', '2018-02-22', 'refactor a line of code', 3),
	('done', '2018-02-22', 'delete a line of code', 3),
	('done', '2018-02-22', 'write a line of code', 3),
	('done', '2018-02-22', 'refactor a line of code', 3),
	('done', '2018-02-22', 'delete a line of code', 3),
	('done', '2018-02-22', 'write a line of code', 3),
	('done', '2018-02-22', 'refactor a line of code', 3),
	('done', '2018-02-22', 'delete a line of code', 3),
	('done', '2018-02-22', 'write a line of code', 3),
	('done', '2018-02-22', 'refactor a line of code', 3),
	('done', '2018-02-22', 'delete a line of code', 3),
	('done', '2018-02-22', 'write a line of code', 3),
	('done', '2018-02-22', 'refactor a line of code', 3),
	('done', '2018-02-22', 'delete a line of code', 3),
	('done', '2018-02-22', 'write a line of code', 3),
	('done', '2018-02-22', 'refactor a line of code', 3),
	('done', '2018-02-22', 'delete a line of code', 3),
	('done', '2018-02-22', 'write a line of code', 3),
	('done', '2018-02-22', 'refactor a line of code', 3),
	('done', '2018-02-22', 'delete a line of code', 3),
	('done', '2018-02-22', 'write a line of code', 3),
	('done', '2018-02-22', 'refactor a line of code', 3),
	('done', '2018-02-22', 'delete a line of code', 3),
	('done', '2018-02-22', 'write a line of code', 3),
	('done', '2018-02-22', 'refactor a line of code', 3),
	('done', '2018-02-22', 'delete a line of code', 3),
	('done', '2018-02-22', 'write a line of code', 3),
	('done', '2018-02-22', 'refactor a line of code', 3),
	('done', '2018-02-22', 'delete a line of code', 3),
	('done', '2018-02-22', 'write a line of code', 3),
	('done', '2018-02-22', 'refactor a line of code', 3),
	('done', '2018-02-22', 'delete a line of code', 3),
	('done', '2018-02-22', 'write a line of code', 3),
	('done', '2018-02-22', 'refactor a line of code', 3),
	('done', '2018-02-22', 'delete a line of code', 3),
	('done', '2018-02-22', 'write a line of code', 3),
	('done', '2018-02-22', 'refactor a line of code', 3),
	('done', '2018-02-22', 'delete a line of code', 3),
	('done', '2018-02-22', 'write a line of code', 3),
	('done', '2018-02-22', 'refactor a line of code', 3),
	('done', '2018-02-22', 'delete a line of code', 3),
	('done', '2018-02-22', 'write a line of code', 3),
	('done', '2018-02-22', 'refactor a line of code', 3),
	('done', '2018-02-22', 'delete a line of code', 3),
	('done', '2018-02-22', 'write a line of code', 3),
	('done', '2018-02-22', 'refactor a line of code', 3),
	('done', '2018-02-22', 'delete a line of code', 3),
	('done', '2018-02-22', 'write a line of code', 3),
	('done', '2018-02-22', 'refactor a line of code', 3),
	('done', '2018-02-22', 'delete a line of code', 3),
	('done', '2018-02-22', 'write a line of code', 3),
	('done', '2018-02-22', 'refactor a line of code', 3),
	('done', '2018-02-22', 'delete a line of code', 3),
	('done', '2018-02-22', 'write a line of code', 3),
	('done', '2018-02-22', 'refactor a line of code', 3),
	('done', '2018-02-22', 'delete a line of code', 3),
	('done', '2018-02-22', 'write a line of code', 3),
	('done', '2018-02-22', 'refactor a line of code', 3),
	('done', '2018-02-22', 'delete a line of code', 3),
	('done', '2018-02-22', 'write a line of code', 3),
	('done', '2018-02-22', 'refactor a line of code', 3),
	('done', '2018-02-22', 'delete a line of code', 3),
	('done', '2018-02-22', 'write a line of code', 3),
	('done', '2018-02-22', 'refactor a line of code', 3),
	('done', '2018-02-22', 'delete a line of code', 3),
	('done', '2018-02-22', 'write a line of code', 3),
	('done', '2018-02-22', 'refactor a line of code', 3),
	('done', '2018-02-22', 'delete a line of code', 3),
	('done', '2018-02-22', 'write a line of code', 3),
	('done', '2018-02-22', 'refactor a line of code', 3),
	('done', '2018-02-22', 'delete a line of code', 3),
	('done', '2018-02-22', 'write a line of code', 3),
	('done', '2018-02-22', 'refactor a line of code', 3),
	('done', '2018-02-22', 'delete a line of code', 3),
	('done', '2018-02-22', 'write a line of code', 3),
	('done', '2018-02-22', 'refactor a line of code', 3),
	('done', '2018-02-22', 'delete a line of code', 3),
	('done', '2018-02-22', 'write a line of code', 3),
	('done', '2018-02-22', 'refactor a line of code', 3),
	('done', '2018-02-22', 'delete a line of code', 3),
	('done', '2018-02-22', 'write a line of code', 3),
	('done', '2018-02-22', 'refactor a line of code', 3),
	('done', '2018-02-22', 'delete a line of code', 3),
	('done', '2018-02-22', 'write a line of code', 3),
	('done', '2018-02-22', 'refactor a line of code', 3),
	('done', '2018-02-22', 'delete a line of code', 3)
;
